^C:\USERS\ABRIS\ONEDRIVE\DESKTOP\REPOS\COMPUTER-GRAQPHICS-BEADANDO\01_TEXTURES\01_TEXTURES\MYAPP.CPP
C:\USERS\ABRIS\ONEDRIVE\DESKTOP\REPOS\COMPUTER-GRAQPHICS-BEADANDO\01_TEXTURES\01_TEXTURES\MYAPP.H
T:\OGLPACK\INCLUDE\GL\GLEW.H
C:\PROGRAM FILES (X86)\WINDOWS KITS\10\INCLUDE\10.0.18362.0\UM\GL\GLU.H
C:\PROGRAM FILES (X86)\WINDOWS KITS\10\INCLUDE\10.0.18362.0\SHARED\WINAPIFAMILY.H
C:\PROGRAM FILES (X86)\WINDOWS KITS\10\INCLUDE\10.0.18362.0\SHARED\WINPACKAGEFAMILY.H
C:\PROGRAM FILES (X86)\WINDOWS KITS\10\INCLUDE\10.0.18362.0\UM\GL\GL.H
T:\OGLPACK\INCLUDE\SDL.H
T:\OGLPACK\INCLUDE\SDL_MAIN.H
T:\OGLPACK\INCLUDE\SDL_STDINC.H
T:\OGLPACK\INCLUDE\SDL_CONFIG.H
T:\OGLPACK\INCLUDE\SDL_PLATFORM.H
T:\OGLPACK\INCLUDE\BEGIN_CODE.H
T:\OGLPACK\INCLUDE\CLOSE_CODE.H
C:\PROGRAM FILES (X86)\WINDOWS KITS\10\INCLUDE\10.0.18362.0\UCRT\STDDEF.H
C:\PROGRAM FILES (X86)\WINDOWS KITS\10\INCLUDE\10.0.18362.0\UCRT\CORECRT.H
C:\PROGRAM FILES (X86)\MICROSOFT VISUAL STUDIO\2019\COMMUNITY\VC\TOOLS\MSVC\14.25.28610\INCLUDE\VCRUNTIME.H
C:\PROGRAM FILES (X86)\MICROSOFT VISUAL STUDIO\2019\COMMUNITY\VC\TOOLS\MSVC\14.25.28610\INCLUDE\SAL.H
C:\PROGRAM FILES (X86)\MICROSOFT VISUAL STUDIO\2019\COMMUNITY\VC\TOOLS\MSVC\14.25.28610\INCLUDE\CONCURRENCYSAL.H
C:\PROGRAM FILES (X86)\MICROSOFT VISUAL STUDIO\2019\COMMUNITY\VC\TOOLS\MSVC\14.25.28610\INCLUDE\VADEFS.H
C:\PROGRAM FILES (X86)\MICROSOFT VISUAL STUDIO\2019\COMMUNITY\VC\TOOLS\MSVC\14.25.28610\INCLUDE\STDARG.H
T:\OGLPACK\INCLUDE\SDL_ASSERT.H
T:\OGLPACK\INCLUDE\SDL_ATOMIC.H
T:\OGLPACK\INCLUDE\SDL_AUDIO.H
T:\OGLPACK\INCLUDE\SDL_ERROR.H
T:\OGLPACK\INCLUDE\SDL_ENDIAN.H
T:\OGLPACK\INCLUDE\SDL_MUTEX.H
T:\OGLPACK\INCLUDE\SDL_THREAD.H
C:\PROGRAM FILES (X86)\WINDOWS KITS\10\INCLUDE\10.0.18362.0\UCRT\PROCESS.H
C:\PROGRAM FILES (X86)\WINDOWS KITS\10\INCLUDE\10.0.18362.0\UCRT\CORECRT_STARTUP.H
C:\PROGRAM FILES (X86)\WINDOWS KITS\10\INCLUDE\10.0.18362.0\UCRT\MATH.H
C:\PROGRAM FILES (X86)\WINDOWS KITS\10\INCLUDE\10.0.18362.0\UCRT\CORECRT_MATH.H
C:\PROGRAM FILES (X86)\MICROSOFT VISUAL STUDIO\2019\COMMUNITY\VC\TOOLS\MSVC\14.25.28610\INCLUDE\VCRUNTIME_STARTUP.H
C:\PROGRAM FILES (X86)\WINDOWS KITS\10\INCLUDE\10.0.18362.0\UCRT\CORECRT_WPROCESS.H
T:\OGLPACK\INCLUDE\SDL_RWOPS.H
T:\OGLPACK\INCLUDE\SDL_CLIPBOARD.H
T:\OGLPACK\INCLUDE\SDL_CPUINFO.H
C:\PROGRAM FILES (X86)\MICROSOFT VISUAL STUDIO\2019\COMMUNITY\VC\TOOLS\MSVC\14.25.28610\INCLUDE\INTRIN.H
C:\PROGRAM FILES (X86)\MICROSOFT VISUAL STUDIO\2019\COMMUNITY\VC\TOOLS\MSVC\14.25.28610\INCLUDE\INTRIN0.H
C:\PROGRAM FILES (X86)\MICROSOFT VISUAL STUDIO\2019\COMMUNITY\VC\TOOLS\MSVC\14.25.28610\INCLUDE\SETJMP.H
C:\PROGRAM FILES (X86)\MICROSOFT VISUAL STUDIO\2019\COMMUNITY\VC\TOOLS\MSVC\14.25.28610\INCLUDE\IMMINTRIN.H
C:\PROGRAM FILES (X86)\MICROSOFT VISUAL STUDIO\2019\COMMUNITY\VC\TOOLS\MSVC\14.25.28610\INCLUDE\WMMINTRIN.H
C:\PROGRAM FILES (X86)\MICROSOFT VISUAL STUDIO\2019\COMMUNITY\VC\TOOLS\MSVC\14.25.28610\INCLUDE\NMMINTRIN.H
C:\PROGRAM FILES (X86)\MICROSOFT VISUAL STUDIO\2019\COMMUNITY\VC\TOOLS\MSVC\14.25.28610\INCLUDE\SMMINTRIN.H
C:\PROGRAM FILES (X86)\MICROSOFT VISUAL STUDIO\2019\COMMUNITY\VC\TOOLS\MSVC\14.25.28610\INCLUDE\TMMINTRIN.H
C:\PROGRAM FILES (X86)\MICROSOFT VISUAL STUDIO\2019\COMMUNITY\VC\TOOLS\MSVC\14.25.28610\INCLUDE\PMMINTRIN.H
C:\PROGRAM FILES (X86)\MICROSOFT VISUAL STUDIO\2019\COMMUNITY\VC\TOOLS\MSVC\14.25.28610\INCLUDE\EMMINTRIN.H
C:\PROGRAM FILES (X86)\MICROSOFT VISUAL STUDIO\2019\COMMUNITY\VC\TOOLS\MSVC\14.25.28610\INCLUDE\XMMINTRIN.H
C:\PROGRAM FILES (X86)\MICROSOFT VISUAL STUDIO\2019\COMMUNITY\VC\TOOLS\MSVC\14.25.28610\INCLUDE\MMINTRIN.H
C:\PROGRAM FILES (X86)\WINDOWS KITS\10\INCLUDE\10.0.18362.0\UCRT\MALLOC.H
C:\PROGRAM FILES (X86)\WINDOWS KITS\10\INCLUDE\10.0.18362.0\UCRT\CORECRT_MALLOC.H
C:\PROGRAM FILES (X86)\MICROSOFT VISUAL STUDIO\2019\COMMUNITY\VC\TOOLS\MSVC\14.25.28610\INCLUDE\ZMMINTRIN.H
C:\PROGRAM FILES (X86)\MICROSOFT VISUAL STUDIO\2019\COMMUNITY\VC\TOOLS\MSVC\14.25.28610\INCLUDE\AMMINTRIN.H
C:\PROGRAM FILES (X86)\MICROSOFT VISUAL STUDIO\2019\COMMUNITY\VC\TOOLS\MSVC\14.25.28610\INCLUDE\MM3DNOW.H
T:\OGLPACK\INCLUDE\SDL_EVENTS.H
T:\OGLPACK\INCLUDE\SDL_VIDEO.H
T:\OGLPACK\INCLUDE\SDL_PIXELS.H
T:\OGLPACK\INCLUDE\SDL_RECT.H
T:\OGLPACK\INCLUDE\SDL_SURFACE.H
T:\OGLPACK\INCLUDE\SDL_BLENDMODE.H
T:\OGLPACK\INCLUDE\SDL_KEYBOARD.H
T:\OGLPACK\INCLUDE\SDL_KEYCODE.H
T:\OGLPACK\INCLUDE\SDL_SCANCODE.H
T:\OGLPACK\INCLUDE\SDL_MOUSE.H
T:\OGLPACK\INCLUDE\SDL_JOYSTICK.H
T:\OGLPACK\INCLUDE\SDL_GAMECONTROLLER.H
T:\OGLPACK\INCLUDE\SDL_QUIT.H
T:\OGLPACK\INCLUDE\SDL_GESTURE.H
T:\OGLPACK\INCLUDE\SDL_TOUCH.H
T:\OGLPACK\INCLUDE\SDL_FILESYSTEM.H
T:\OGLPACK\INCLUDE\SDL_HAPTIC.H
T:\OGLPACK\INCLUDE\SDL_HINTS.H
T:\OGLPACK\INCLUDE\SDL_LOADSO.H
T:\OGLPACK\INCLUDE\SDL_LOG.H
T:\OGLPACK\INCLUDE\SDL_MESSAGEBOX.H
T:\OGLPACK\INCLUDE\SDL_POWER.H
T:\OGLPACK\INCLUDE\SDL_RENDER.H
T:\OGLPACK\INCLUDE\SDL_SYSTEM.H
T:\OGLPACK\INCLUDE\SDL_TIMER.H
T:\OGLPACK\INCLUDE\SDL_VERSION.H
T:\OGLPACK\INCLUDE\SDL_OPENGL.H
T:\OGLPACK\INCLUDE\GLM\GLM.HPP
T:\OGLPACK\INCLUDE\GLM\DETAIL\_FIXES.HPP
C:\PROGRAM FILES (X86)\MICROSOFT VISUAL STUDIO\2019\COMMUNITY\VC\TOOLS\MSVC\14.25.28610\INCLUDE\CMATH
C:\PROGRAM FILES (X86)\MICROSOFT VISUAL STUDIO\2019\COMMUNITY\VC\TOOLS\MSVC\14.25.28610\INCLUDE\YVALS.H
C:\PROGRAM FILES (X86)\MICROSOFT VISUAL STUDIO\2019\COMMUNITY\VC\TOOLS\MSVC\14.25.28610\INCLUDE\YVALS_CORE.H
C:\PROGRAM FILES (X86)\MICROSOFT VISUAL STUDIO\2019\COMMUNITY\VC\TOOLS\MSVC\14.25.28610\INCLUDE\XKEYCHECK.H
C:\PROGRAM FILES (X86)\WINDOWS KITS\10\INCLUDE\10.0.18362.0\UCRT\CRTDBG.H
C:\PROGRAM FILES (X86)\MICROSOFT VISUAL STUDIO\2019\COMMUNITY\VC\TOOLS\MSVC\14.25.28610\INCLUDE\VCRUNTIME_NEW_DEBUG.H
C:\PROGRAM FILES (X86)\MICROSOFT VISUAL STUDIO\2019\COMMUNITY\VC\TOOLS\MSVC\14.25.28610\INCLUDE\VCRUNTIME_NEW.H
C:\PROGRAM FILES (X86)\MICROSOFT VISUAL STUDIO\2019\COMMUNITY\VC\TOOLS\MSVC\14.25.28610\INCLUDE\CRTDEFS.H
C:\PROGRAM FILES (X86)\MICROSOFT VISUAL STUDIO\2019\COMMUNITY\VC\TOOLS\MSVC\14.25.28610\INCLUDE\USE_ANSI.H
C:\PROGRAM FILES (X86)\MICROSOFT VISUAL STUDIO\2019\COMMUNITY\VC\TOOLS\MSVC\14.25.28610\INCLUDE\CSTDLIB
C:\PROGRAM FILES (X86)\WINDOWS KITS\10\INCLUDE\10.0.18362.0\UCRT\STDLIB.H
C:\PROGRAM FILES (X86)\WINDOWS KITS\10\INCLUDE\10.0.18362.0\UCRT\CORECRT_SEARCH.H
C:\PROGRAM FILES (X86)\WINDOWS KITS\10\INCLUDE\10.0.18362.0\UCRT\CORECRT_WSTDLIB.H
C:\PROGRAM FILES (X86)\MICROSOFT VISUAL STUDIO\2019\COMMUNITY\VC\TOOLS\MSVC\14.25.28610\INCLUDE\LIMITS.H
C:\PROGRAM FILES (X86)\MICROSOFT VISUAL STUDIO\2019\COMMUNITY\VC\TOOLS\MSVC\14.25.28610\INCLUDE\XTR1COMMON
C:\PROGRAM FILES (X86)\MICROSOFT VISUAL STUDIO\2019\COMMUNITY\VC\TOOLS\MSVC\14.25.28610\INCLUDE\CLIMITS
C:\PROGRAM FILES (X86)\MICROSOFT VISUAL STUDIO\2019\COMMUNITY\VC\TOOLS\MSVC\14.25.28610\INCLUDE\CFLOAT
C:\PROGRAM FILES (X86)\WINDOWS KITS\10\INCLUDE\10.0.18362.0\UCRT\FLOAT.H
C:\PROGRAM FILES (X86)\MICROSOFT VISUAL STUDIO\2019\COMMUNITY\VC\TOOLS\MSVC\14.25.28610\INCLUDE\LIMITS
C:\PROGRAM FILES (X86)\MICROSOFT VISUAL STUDIO\2019\COMMUNITY\VC\TOOLS\MSVC\14.25.28610\INCLUDE\CWCHAR
C:\PROGRAM FILES (X86)\MICROSOFT VISUAL STUDIO\2019\COMMUNITY\VC\TOOLS\MSVC\14.25.28610\INCLUDE\CSTDIO
C:\PROGRAM FILES (X86)\WINDOWS KITS\10\INCLUDE\10.0.18362.0\UCRT\STDIO.H
C:\PROGRAM FILES (X86)\WINDOWS KITS\10\INCLUDE\10.0.18362.0\UCRT\CORECRT_WSTDIO.H
C:\PROGRAM FILES (X86)\WINDOWS KITS\10\INCLUDE\10.0.18362.0\UCRT\CORECRT_STDIO_CONFIG.H
C:\PROGRAM FILES (X86)\WINDOWS KITS\10\INCLUDE\10.0.18362.0\UCRT\WCHAR.H
C:\PROGRAM FILES (X86)\WINDOWS KITS\10\INCLUDE\10.0.18362.0\UCRT\CORECRT_MEMCPY_S.H
C:\PROGRAM FILES (X86)\WINDOWS KITS\10\INCLUDE\10.0.18362.0\UCRT\ERRNO.H
C:\PROGRAM FILES (X86)\MICROSOFT VISUAL STUDIO\2019\COMMUNITY\VC\TOOLS\MSVC\14.25.28610\INCLUDE\VCRUNTIME_STRING.H
C:\PROGRAM FILES (X86)\WINDOWS KITS\10\INCLUDE\10.0.18362.0\UCRT\CORECRT_WCONIO.H
C:\PROGRAM FILES (X86)\WINDOWS KITS\10\INCLUDE\10.0.18362.0\UCRT\CORECRT_WCTYPE.H
C:\PROGRAM FILES (X86)\WINDOWS KITS\10\INCLUDE\10.0.18362.0\UCRT\CORECRT_WDIRECT.H
C:\PROGRAM FILES (X86)\WINDOWS KITS\10\INCLUDE\10.0.18362.0\UCRT\CORECRT_WIO.H
C:\PROGRAM FILES (X86)\WINDOWS KITS\10\INCLUDE\10.0.18362.0\UCRT\CORECRT_SHARE.H
C:\PROGRAM FILES (X86)\WINDOWS KITS\10\INCLUDE\10.0.18362.0\UCRT\CORECRT_WSTRING.H
C:\PROGRAM FILES (X86)\WINDOWS KITS\10\INCLUDE\10.0.18362.0\UCRT\CORECRT_WTIME.H
C:\PROGRAM FILES (X86)\WINDOWS KITS\10\INCLUDE\10.0.18362.0\UCRT\SYS\STAT.H
C:\PROGRAM FILES (X86)\WINDOWS KITS\10\INCLUDE\10.0.18362.0\UCRT\SYS\TYPES.H
C:\PROGRAM FILES (X86)\MICROSOFT VISUAL STUDIO\2019\COMMUNITY\VC\TOOLS\MSVC\14.25.28610\INCLUDE\XSTDDEF
C:\PROGRAM FILES (X86)\MICROSOFT VISUAL STUDIO\2019\COMMUNITY\VC\TOOLS\MSVC\14.25.28610\INCLUDE\CSTDDEF
C:\PROGRAM FILES (X86)\MICROSOFT VISUAL STUDIO\2019\COMMUNITY\VC\TOOLS\MSVC\14.25.28610\INCLUDE\INITIALIZER_LIST
C:\PROGRAM FILES (X86)\MICROSOFT VISUAL STUDIO\2019\COMMUNITY\VC\TOOLS\MSVC\14.25.28610\INCLUDE\CASSERT
C:\PROGRAM FILES (X86)\WINDOWS KITS\10\INCLUDE\10.0.18362.0\UCRT\ASSERT.H
T:\OGLPACK\INCLUDE\GLM\FWD.HPP
T:\OGLPACK\INCLUDE\GLM\DETAIL\TYPE_INT.HPP
T:\OGLPACK\INCLUDE\GLM\DETAIL\SETUP.HPP
T:\OGLPACK\INCLUDE\GLM\SIMD\PLATFORM.H
C:\PROGRAM FILES (X86)\MICROSOFT VISUAL STUDIO\2019\COMMUNITY\VC\TOOLS\MSVC\14.25.28610\INCLUDE\TYPE_TRAITS
C:\PROGRAM FILES (X86)\MICROSOFT VISUAL STUDIO\2019\COMMUNITY\VC\TOOLS\MSVC\14.25.28610\INCLUDE\CSTDINT
C:\PROGRAM FILES (X86)\MICROSOFT VISUAL STUDIO\2019\COMMUNITY\VC\TOOLS\MSVC\14.25.28610\INCLUDE\STDINT.H
T:\OGLPACK\INCLUDE\GLM\DETAIL\TYPE_FLOAT.HPP
T:\OGLPACK\INCLUDE\GLM\DETAIL\TYPE_VEC.HPP
T:\OGLPACK\INCLUDE\GLM\DETAIL\PRECISION.HPP
T:\OGLPACK\INCLUDE\GLM\DETAIL\TYPE_MAT.HPP
T:\OGLPACK\INCLUDE\GLM\VEC2.HPP
T:\OGLPACK\INCLUDE\GLM\DETAIL\TYPE_VEC2.HPP
T:\OGLPACK\INCLUDE\GLM\DETAIL\TYPE_VEC2.INL
T:\OGLPACK\INCLUDE\GLM\VEC3.HPP
T:\OGLPACK\INCLUDE\GLM\DETAIL\TYPE_VEC3.HPP
T:\OGLPACK\INCLUDE\GLM\DETAIL\TYPE_VEC3.INL
T:\OGLPACK\INCLUDE\GLM\VEC4.HPP
T:\OGLPACK\INCLUDE\GLM\DETAIL\TYPE_VEC4.HPP
T:\OGLPACK\INCLUDE\GLM\DETAIL\TYPE_VEC4.INL
T:\OGLPACK\INCLUDE\GLM\DETAIL\TYPE_VEC4_SIMD.INL
T:\OGLPACK\INCLUDE\GLM\MAT2X2.HPP
T:\OGLPACK\INCLUDE\GLM\DETAIL\TYPE_MAT2X2.HPP
T:\OGLPACK\INCLUDE\GLM\DETAIL\TYPE_MAT2X2.INL
T:\OGLPACK\INCLUDE\GLM\DETAIL\FUNC_MATRIX.HPP
T:\OGLPACK\INCLUDE\GLM\MAT2X3.HPP
T:\OGLPACK\INCLUDE\GLM\DETAIL\TYPE_MAT2X3.HPP
T:\OGLPACK\INCLUDE\GLM\DETAIL\TYPE_MAT2X3.INL
T:\OGLPACK\INCLUDE\GLM\MAT2X4.HPP
T:\OGLPACK\INCLUDE\GLM\DETAIL\TYPE_MAT2X4.HPP
T:\OGLPACK\INCLUDE\GLM\DETAIL\TYPE_MAT2X4.INL
T:\OGLPACK\INCLUDE\GLM\MAT3X2.HPP
T:\OGLPACK\INCLUDE\GLM\DETAIL\TYPE_MAT3X2.HPP
T:\OGLPACK\INCLUDE\GLM\DETAIL\TYPE_MAT3X2.INL
T:\OGLPACK\INCLUDE\GLM\MAT3X3.HPP
T:\OGLPACK\INCLUDE\GLM\DETAIL\TYPE_MAT3X3.HPP
T:\OGLPACK\INCLUDE\GLM\DETAIL\TYPE_MAT3X3.INL
T:\OGLPACK\INCLUDE\GLM\MAT3X4.HPP
T:\OGLPACK\INCLUDE\GLM\DETAIL\TYPE_MAT3X4.HPP
T:\OGLPACK\INCLUDE\GLM\DETAIL\TYPE_MAT3X4.INL
T:\OGLPACK\INCLUDE\GLM\MAT4X2.HPP
T:\OGLPACK\INCLUDE\GLM\DETAIL\TYPE_MAT4X2.HPP
T:\OGLPACK\INCLUDE\GLM\DETAIL\TYPE_MAT4X2.INL
T:\OGLPACK\INCLUDE\GLM\MAT4X3.HPP
T:\OGLPACK\INCLUDE\GLM\DETAIL\TYPE_MAT4X3.HPP
T:\OGLPACK\INCLUDE\GLM\DETAIL\TYPE_MAT4X3.INL
T:\OGLPACK\INCLUDE\GLM\MAT4X4.HPP
T:\OGLPACK\INCLUDE\GLM\DETAIL\TYPE_MAT4X4.HPP
T:\OGLPACK\INCLUDE\GLM\DETAIL\TYPE_MAT4X4.INL
T:\OGLPACK\INCLUDE\GLM\DETAIL\TYPE_MAT4X4_SIMD.INL
T:\OGLPACK\INCLUDE\GLM\DETAIL\FUNC_MATRIX.INL
T:\OGLPACK\INCLUDE\GLM\GEOMETRIC.HPP
T:\OGLPACK\INCLUDE\GLM\DETAIL\FUNC_GEOMETRIC.HPP
T:\OGLPACK\INCLUDE\GLM\DETAIL\FUNC_GEOMETRIC.INL
T:\OGLPACK\INCLUDE\GLM\DETAIL\FUNC_EXPONENTIAL.HPP
T:\OGLPACK\INCLUDE\GLM\DETAIL\TYPE_VEC1.HPP
T:\OGLPACK\INCLUDE\GLM\DETAIL\TYPE_VEC1.INL
T:\OGLPACK\INCLUDE\GLM\DETAIL\FUNC_EXPONENTIAL.INL
T:\OGLPACK\INCLUDE\GLM\DETAIL\FUNC_VECTOR_RELATIONAL.HPP
T:\OGLPACK\INCLUDE\GLM\DETAIL\FUNC_VECTOR_RELATIONAL.INL
T:\OGLPACK\INCLUDE\GLM\DETAIL\FUNC_VECTOR_RELATIONAL_SIMD.INL
T:\OGLPACK\INCLUDE\GLM\DETAIL\_VECTORIZE.HPP
T:\OGLPACK\INCLUDE\GLM\DETAIL\FUNC_EXPONENTIAL_SIMD.INL
T:\OGLPACK\INCLUDE\GLM\SIMD\EXPONENTIAL.H
T:\OGLPACK\INCLUDE\GLM\DETAIL\FUNC_COMMON.HPP
T:\OGLPACK\INCLUDE\GLM\DETAIL\FUNC_COMMON.INL
T:\OGLPACK\INCLUDE\GLM\DETAIL\FUNC_COMMON_SIMD.INL
T:\OGLPACK\INCLUDE\GLM\SIMD\COMMON.H
T:\OGLPACK\INCLUDE\GLM\DETAIL\FUNC_GEOMETRIC_SIMD.INL
T:\OGLPACK\INCLUDE\GLM\SIMD\GEOMETRIC.H
T:\OGLPACK\INCLUDE\GLM\DETAIL\FUNC_MATRIX_SIMD.INL
T:\OGLPACK\INCLUDE\GLM\SIMD\MATRIX.H
T:\OGLPACK\INCLUDE\GLM\TRIGONOMETRIC.HPP
T:\OGLPACK\INCLUDE\GLM\DETAIL\FUNC_TRIGONOMETRIC.HPP
T:\OGLPACK\INCLUDE\GLM\DETAIL\FUNC_TRIGONOMETRIC.INL
T:\OGLPACK\INCLUDE\GLM\DETAIL\FUNC_TRIGONOMETRIC_SIMD.INL
T:\OGLPACK\INCLUDE\GLM\EXPONENTIAL.HPP
T:\OGLPACK\INCLUDE\GLM\COMMON.HPP
T:\OGLPACK\INCLUDE\GLM\PACKING.HPP
T:\OGLPACK\INCLUDE\GLM\DETAIL\FUNC_PACKING.HPP
T:\OGLPACK\INCLUDE\GLM\DETAIL\FUNC_PACKING.INL
T:\OGLPACK\INCLUDE\GLM\DETAIL\TYPE_HALF.HPP
T:\OGLPACK\INCLUDE\GLM\DETAIL\TYPE_HALF.INL
T:\OGLPACK\INCLUDE\GLM\DETAIL\FUNC_PACKING_SIMD.INL
T:\OGLPACK\INCLUDE\GLM\MATRIX.HPP
T:\OGLPACK\INCLUDE\GLM\VECTOR_RELATIONAL.HPP
T:\OGLPACK\INCLUDE\GLM\INTEGER.HPP
T:\OGLPACK\INCLUDE\GLM\DETAIL\FUNC_INTEGER.HPP
T:\OGLPACK\INCLUDE\GLM\DETAIL\FUNC_INTEGER.INL
T:\OGLPACK\INCLUDE\GLM\DETAIL\FUNC_INTEGER_SIMD.INL
T:\OGLPACK\INCLUDE\GLM\SIMD\INTEGER.H
T:\OGLPACK\INCLUDE\GLM\GTC\MATRIX_TRANSFORM.HPP
T:\OGLPACK\INCLUDE\GLM\GTC\CONSTANTS.HPP
T:\OGLPACK\INCLUDE\GLM\GTC\CONSTANTS.INL
T:\OGLPACK\INCLUDE\GLM\GTC\MATRIX_TRANSFORM.INL
T:\OGLPACK\INCLUDE\GLM\GTX\TRANSFORM2.HPP
T:\OGLPACK\INCLUDE\GLM\GTX\TRANSFORM.HPP
T:\OGLPACK\INCLUDE\GLM\GTX\TRANSFORM.INL
T:\OGLPACK\INCLUDE\GLM\GTX\TRANSFORM2.INL
C:\USERS\ABRIS\ONEDRIVE\DESKTOP\REPOS\COMPUTER-GRAQPHICS-BEADANDO\01_TEXTURES\01_TEXTURES\GLUTILS.HPP
C:\PROGRAM FILES (X86)\MICROSOFT VISUAL STUDIO\2019\COMMUNITY\VC\TOOLS\MSVC\14.25.28610\INCLUDE\STRING
C:\PROGRAM FILES (X86)\MICROSOFT VISUAL STUDIO\2019\COMMUNITY\VC\TOOLS\MSVC\14.25.28610\INCLUDE\XSTRING
C:\PROGRAM FILES (X86)\MICROSOFT VISUAL STUDIO\2019\COMMUNITY\VC\TOOLS\MSVC\14.25.28610\INCLUDE\IOSFWD
C:\PROGRAM FILES (X86)\MICROSOFT VISUAL STUDIO\2019\COMMUNITY\VC\TOOLS\MSVC\14.25.28610\INCLUDE\CSTRING
C:\PROGRAM FILES (X86)\WINDOWS KITS\10\INCLUDE\10.0.18362.0\UCRT\STRING.H
C:\PROGRAM FILES (X86)\WINDOWS KITS\10\INCLUDE\10.0.18362.0\UCRT\CORECRT_MEMORY.H
C:\PROGRAM FILES (X86)\MICROSOFT VISUAL STUDIO\2019\COMMUNITY\VC\TOOLS\MSVC\14.25.28610\INCLUDE\XMEMORY
C:\PROGRAM FILES (X86)\MICROSOFT VISUAL STUDIO\2019\COMMUNITY\VC\TOOLS\MSVC\14.25.28610\INCLUDE\NEW
C:\PROGRAM FILES (X86)\MICROSOFT VISUAL STUDIO\2019\COMMUNITY\VC\TOOLS\MSVC\14.25.28610\INCLUDE\EXCEPTION
C:\PROGRAM FILES (X86)\MICROSOFT VISUAL STUDIO\2019\COMMUNITY\VC\TOOLS\MSVC\14.25.28610\INCLUDE\VCRUNTIME_EXCEPTION.H
C:\PROGRAM FILES (X86)\MICROSOFT VISUAL STUDIO\2019\COMMUNITY\VC\TOOLS\MSVC\14.25.28610\INCLUDE\EH.H
C:\PROGRAM FILES (X86)\WINDOWS KITS\10\INCLUDE\10.0.18362.0\UCRT\CORECRT_TERMINATE.H
C:\PROGRAM FILES (X86)\MICROSOFT VISUAL STUDIO\2019\COMMUNITY\VC\TOOLS\MSVC\14.25.28610\INCLUDE\XATOMIC.H
C:\PROGRAM FILES (X86)\MICROSOFT VISUAL STUDIO\2019\COMMUNITY\VC\TOOLS\MSVC\14.25.28610\INCLUDE\XUTILITY
C:\PROGRAM FILES (X86)\MICROSOFT VISUAL STUDIO\2019\COMMUNITY\VC\TOOLS\MSVC\14.25.28610\INCLUDE\UTILITY
C:\PROGRAM FILES (X86)\MICROSOFT VISUAL STUDIO\2019\COMMUNITY\VC\TOOLS\MSVC\14.25.28610\INCLUDE\CCTYPE
C:\PROGRAM FILES (X86)\WINDOWS KITS\10\INCLUDE\10.0.18362.0\UCRT\CTYPE.H
C:\PROGRAM FILES (X86)\MICROSOFT VISUAL STUDIO\2019\COMMUNITY\VC\TOOLS\MSVC\14.25.28610\INCLUDE\IOSTREAM
C:\PROGRAM FILES (X86)\MICROSOFT VISUAL STUDIO\2019\COMMUNITY\VC\TOOLS\MSVC\14.25.28610\INCLUDE\ISTREAM
C:\PROGRAM FILES (X86)\MICROSOFT VISUAL STUDIO\2019\COMMUNITY\VC\TOOLS\MSVC\14.25.28610\INCLUDE\OSTREAM
C:\PROGRAM FILES (X86)\MICROSOFT VISUAL STUDIO\2019\COMMUNITY\VC\TOOLS\MSVC\14.25.28610\INCLUDE\IOS
C:\PROGRAM FILES (X86)\MICROSOFT VISUAL STUDIO\2019\COMMUNITY\VC\TOOLS\MSVC\14.25.28610\INCLUDE\XLOCNUM
C:\PROGRAM FILES (X86)\MICROSOFT VISUAL STUDIO\2019\COMMUNITY\VC\TOOLS\MSVC\14.25.28610\INCLUDE\STREAMBUF
C:\PROGRAM FILES (X86)\MICROSOFT VISUAL STUDIO\2019\COMMUNITY\VC\TOOLS\MSVC\14.25.28610\INCLUDE\XIOSBASE
C:\PROGRAM FILES (X86)\WINDOWS KITS\10\INCLUDE\10.0.18362.0\UCRT\SHARE.H
C:\PROGRAM FILES (X86)\MICROSOFT VISUAL STUDIO\2019\COMMUNITY\VC\TOOLS\MSVC\14.25.28610\INCLUDE\SYSTEM_ERROR
C:\PROGRAM FILES (X86)\MICROSOFT VISUAL STUDIO\2019\COMMUNITY\VC\TOOLS\MSVC\14.25.28610\INCLUDE\CERRNO
C:\PROGRAM FILES (X86)\MICROSOFT VISUAL STUDIO\2019\COMMUNITY\VC\TOOLS\MSVC\14.25.28610\INCLUDE\STDEXCEPT
C:\PROGRAM FILES (X86)\MICROSOFT VISUAL STUDIO\2019\COMMUNITY\VC\TOOLS\MSVC\14.25.28610\INCLUDE\XCALL_ONCE.H
C:\PROGRAM FILES (X86)\MICROSOFT VISUAL STUDIO\2019\COMMUNITY\VC\TOOLS\MSVC\14.25.28610\INCLUDE\XERRC.H
C:\PROGRAM FILES (X86)\MICROSOFT VISUAL STUDIO\2019\COMMUNITY\VC\TOOLS\MSVC\14.25.28610\INCLUDE\XLOCALE
C:\PROGRAM FILES (X86)\MICROSOFT VISUAL STUDIO\2019\COMMUNITY\VC\TOOLS\MSVC\14.25.28610\INCLUDE\MEMORY
C:\PROGRAM FILES (X86)\MICROSOFT VISUAL STUDIO\2019\COMMUNITY\VC\TOOLS\MSVC\14.25.28610\INCLUDE\TYPEINFO
C:\PROGRAM FILES (X86)\MICROSOFT VISUAL STUDIO\2019\COMMUNITY\VC\TOOLS\MSVC\14.25.28610\INCLUDE\VCRUNTIME_TYPEINFO.H
C:\PROGRAM FILES (X86)\MICROSOFT VISUAL STUDIO\2019\COMMUNITY\VC\TOOLS\MSVC\14.25.28610\INCLUDE\XFACET
C:\PROGRAM FILES (X86)\MICROSOFT VISUAL STUDIO\2019\COMMUNITY\VC\TOOLS\MSVC\14.25.28610\INCLUDE\XLOCINFO
C:\PROGRAM FILES (X86)\MICROSOFT VISUAL STUDIO\2019\COMMUNITY\VC\TOOLS\MSVC\14.25.28610\INCLUDE\XLOCINFO.H
C:\PROGRAM FILES (X86)\WINDOWS KITS\10\INCLUDE\10.0.18362.0\UCRT\LOCALE.H
C:\PROGRAM FILES (X86)\MICROSOFT VISUAL STUDIO\2019\COMMUNITY\VC\TOOLS\MSVC\14.25.28610\INCLUDE\FSTREAM
C:\PROGRAM FILES (X86)\MICROSOFT VISUAL STUDIO\2019\COMMUNITY\VC\TOOLS\MSVC\14.25.28610\INCLUDE\VECTOR
T:\OGLPACK\INCLUDE\SDL_IMAGE.H
^C:\USERS\ABRIS\ONEDRIVE\DESKTOP\REPOS\COMPUTER-GRAQPHICS-BEADANDO\01_TEXTURES\01_TEXTURES\MAIN.CPP
T:\OGLPACK\INCLUDE\GL\GLEW.H
C:\PROGRAM FILES (X86)\WINDOWS KITS\10\INCLUDE\10.0.18362.0\UM\GL\GLU.H
C:\PROGRAM FILES (X86)\WINDOWS KITS\10\INCLUDE\10.0.18362.0\SHARED\WINAPIFAMILY.H
C:\PROGRAM FILES (X86)\WINDOWS KITS\10\INCLUDE\10.0.18362.0\SHARED\WINPACKAGEFAMILY.H
C:\PROGRAM FILES (X86)\WINDOWS KITS\10\INCLUDE\10.0.18362.0\UM\GL\GL.H
T:\OGLPACK\INCLUDE\SDL.H
T:\OGLPACK\INCLUDE\SDL_MAIN.H
T:\OGLPACK\INCLUDE\SDL_STDINC.H
T:\OGLPACK\INCLUDE\SDL_CONFIG.H
T:\OGLPACK\INCLUDE\SDL_PLATFORM.H
T:\OGLPACK\INCLUDE\BEGIN_CODE.H
T:\OGLPACK\INCLUDE\CLOSE_CODE.H
C:\PROGRAM FILES (X86)\WINDOWS KITS\10\INCLUDE\10.0.18362.0\UCRT\STDDEF.H
C:\PROGRAM FILES (X86)\WINDOWS KITS\10\INCLUDE\10.0.18362.0\UCRT\CORECRT.H
C:\PROGRAM FILES (X86)\MICROSOFT VISUAL STUDIO\2019\COMMUNITY\VC\TOOLS\MSVC\14.25.28610\INCLUDE\VCRUNTIME.H
C:\PROGRAM FILES (X86)\MICROSOFT VISUAL STUDIO\2019\COMMUNITY\VC\TOOLS\MSVC\14.25.28610\INCLUDE\SAL.H
C:\PROGRAM FILES (X86)\MICROSOFT VISUAL STUDIO\2019\COMMUNITY\VC\TOOLS\MSVC\14.25.28610\INCLUDE\CONCURRENCYSAL.H
C:\PROGRAM FILES (X86)\MICROSOFT VISUAL STUDIO\2019\COMMUNITY\VC\TOOLS\MSVC\14.25.28610\INCLUDE\VADEFS.H
C:\PROGRAM FILES (X86)\MICROSOFT VISUAL STUDIO\2019\COMMUNITY\VC\TOOLS\MSVC\14.25.28610\INCLUDE\STDARG.H
T:\OGLPACK\INCLUDE\SDL_ASSERT.H
T:\OGLPACK\INCLUDE\SDL_ATOMIC.H
T:\OGLPACK\INCLUDE\SDL_AUDIO.H
T:\OGLPACK\INCLUDE\SDL_ERROR.H
T:\OGLPACK\INCLUDE\SDL_ENDIAN.H
T:\OGLPACK\INCLUDE\SDL_MUTEX.H
T:\OGLPACK\INCLUDE\SDL_THREAD.H
C:\PROGRAM FILES (X86)\WINDOWS KITS\10\INCLUDE\10.0.18362.0\UCRT\PROCESS.H
C:\PROGRAM FILES (X86)\WINDOWS KITS\10\INCLUDE\10.0.18362.0\UCRT\CORECRT_STARTUP.H
C:\PROGRAM FILES (X86)\WINDOWS KITS\10\INCLUDE\10.0.18362.0\UCRT\MATH.H
C:\PROGRAM FILES (X86)\WINDOWS KITS\10\INCLUDE\10.0.18362.0\UCRT\CORECRT_MATH.H
C:\PROGRAM FILES (X86)\MICROSOFT VISUAL STUDIO\2019\COMMUNITY\VC\TOOLS\MSVC\14.25.28610\INCLUDE\VCRUNTIME_STARTUP.H
C:\PROGRAM FILES (X86)\WINDOWS KITS\10\INCLUDE\10.0.18362.0\UCRT\CORECRT_WPROCESS.H
T:\OGLPACK\INCLUDE\SDL_RWOPS.H
T:\OGLPACK\INCLUDE\SDL_CLIPBOARD.H
T:\OGLPACK\INCLUDE\SDL_CPUINFO.H
C:\PROGRAM FILES (X86)\MICROSOFT VISUAL STUDIO\2019\COMMUNITY\VC\TOOLS\MSVC\14.25.28610\INCLUDE\INTRIN.H
C:\PROGRAM FILES (X86)\MICROSOFT VISUAL STUDIO\2019\COMMUNITY\VC\TOOLS\MSVC\14.25.28610\INCLUDE\INTRIN0.H
C:\PROGRAM FILES (X86)\MICROSOFT VISUAL STUDIO\2019\COMMUNITY\VC\TOOLS\MSVC\14.25.28610\INCLUDE\SETJMP.H
C:\PROGRAM FILES (X86)\MICROSOFT VISUAL STUDIO\2019\COMMUNITY\VC\TOOLS\MSVC\14.25.28610\INCLUDE\IMMINTRIN.H
C:\PROGRAM FILES (X86)\MICROSOFT VISUAL STUDIO\2019\COMMUNITY\VC\TOOLS\MSVC\14.25.28610\INCLUDE\WMMINTRIN.H
C:\PROGRAM FILES (X86)\MICROSOFT VISUAL STUDIO\2019\COMMUNITY\VC\TOOLS\MSVC\14.25.28610\INCLUDE\NMMINTRIN.H
C:\PROGRAM FILES (X86)\MICROSOFT VISUAL STUDIO\2019\COMMUNITY\VC\TOOLS\MSVC\14.25.28610\INCLUDE\SMMINTRIN.H
C:\PROGRAM FILES (X86)\MICROSOFT VISUAL STUDIO\2019\COMMUNITY\VC\TOOLS\MSVC\14.25.28610\INCLUDE\TMMINTRIN.H
C:\PROGRAM FILES (X86)\MICROSOFT VISUAL STUDIO\2019\COMMUNITY\VC\TOOLS\MSVC\14.25.28610\INCLUDE\PMMINTRIN.H
C:\PROGRAM FILES (X86)\MICROSOFT VISUAL STUDIO\2019\COMMUNITY\VC\TOOLS\MSVC\14.25.28610\INCLUDE\EMMINTRIN.H
C:\PROGRAM FILES (X86)\MICROSOFT VISUAL STUDIO\2019\COMMUNITY\VC\TOOLS\MSVC\14.25.28610\INCLUDE\XMMINTRIN.H
C:\PROGRAM FILES (X86)\MICROSOFT VISUAL STUDIO\2019\COMMUNITY\VC\TOOLS\MSVC\14.25.28610\INCLUDE\MMINTRIN.H
C:\PROGRAM FILES (X86)\WINDOWS KITS\10\INCLUDE\10.0.18362.0\UCRT\MALLOC.H
C:\PROGRAM FILES (X86)\WINDOWS KITS\10\INCLUDE\10.0.18362.0\UCRT\CORECRT_MALLOC.H
C:\PROGRAM FILES (X86)\MICROSOFT VISUAL STUDIO\2019\COMMUNITY\VC\TOOLS\MSVC\14.25.28610\INCLUDE\ZMMINTRIN.H
C:\PROGRAM FILES (X86)\MICROSOFT VISUAL STUDIO\2019\COMMUNITY\VC\TOOLS\MSVC\14.25.28610\INCLUDE\AMMINTRIN.H
C:\PROGRAM FILES (X86)\MICROSOFT VISUAL STUDIO\2019\COMMUNITY\VC\TOOLS\MSVC\14.25.28610\INCLUDE\MM3DNOW.H
T:\OGLPACK\INCLUDE\SDL_EVENTS.H
T:\OGLPACK\INCLUDE\SDL_VIDEO.H
T:\OGLPACK\INCLUDE\SDL_PIXELS.H
T:\OGLPACK\INCLUDE\SDL_RECT.H
T:\OGLPACK\INCLUDE\SDL_SURFACE.H
T:\OGLPACK\INCLUDE\SDL_BLENDMODE.H
T:\OGLPACK\INCLUDE\SDL_KEYBOARD.H
T:\OGLPACK\INCLUDE\SDL_KEYCODE.H
T:\OGLPACK\INCLUDE\SDL_SCANCODE.H
T:\OGLPACK\INCLUDE\SDL_MOUSE.H
T:\OGLPACK\INCLUDE\SDL_JOYSTICK.H
T:\OGLPACK\INCLUDE\SDL_GAMECONTROLLER.H
T:\OGLPACK\INCLUDE\SDL_QUIT.H
T:\OGLPACK\INCLUDE\SDL_GESTURE.H
T:\OGLPACK\INCLUDE\SDL_TOUCH.H
T:\OGLPACK\INCLUDE\SDL_FILESYSTEM.H
T:\OGLPACK\INCLUDE\SDL_HAPTIC.H
T:\OGLPACK\INCLUDE\SDL_HINTS.H
T:\OGLPACK\INCLUDE\SDL_LOADSO.H
T:\OGLPACK\INCLUDE\SDL_LOG.H
T:\OGLPACK\INCLUDE\SDL_MESSAGEBOX.H
T:\OGLPACK\INCLUDE\SDL_POWER.H
T:\OGLPACK\INCLUDE\SDL_RENDER.H
T:\OGLPACK\INCLUDE\SDL_SYSTEM.H
T:\OGLPACK\INCLUDE\SDL_TIMER.H
T:\OGLPACK\INCLUDE\SDL_VERSION.H
T:\OGLPACK\INCLUDE\SDL_OPENGL.H
C:\PROGRAM FILES (X86)\MICROSOFT VISUAL STUDIO\2019\COMMUNITY\VC\TOOLS\MSVC\14.25.28610\INCLUDE\IOSTREAM
C:\PROGRAM FILES (X86)\MICROSOFT VISUAL STUDIO\2019\COMMUNITY\VC\TOOLS\MSVC\14.25.28610\INCLUDE\YVALS_CORE.H
C:\PROGRAM FILES (X86)\MICROSOFT VISUAL STUDIO\2019\COMMUNITY\VC\TOOLS\MSVC\14.25.28610\INCLUDE\XKEYCHECK.H
C:\PROGRAM FILES (X86)\MICROSOFT VISUAL STUDIO\2019\COMMUNITY\VC\TOOLS\MSVC\14.25.28610\INCLUDE\ISTREAM
C:\PROGRAM FILES (X86)\MICROSOFT VISUAL STUDIO\2019\COMMUNITY\VC\TOOLS\MSVC\14.25.28610\INCLUDE\OSTREAM
C:\PROGRAM FILES (X86)\MICROSOFT VISUAL STUDIO\2019\COMMUNITY\VC\TOOLS\MSVC\14.25.28610\INCLUDE\IOS
C:\PROGRAM FILES (X86)\MICROSOFT VISUAL STUDIO\2019\COMMUNITY\VC\TOOLS\MSVC\14.25.28610\INCLUDE\XLOCNUM
C:\PROGRAM FILES (X86)\MICROSOFT VISUAL STUDIO\2019\COMMUNITY\VC\TOOLS\MSVC\14.25.28610\INCLUDE\CLIMITS
C:\PROGRAM FILES (X86)\MICROSOFT VISUAL STUDIO\2019\COMMUNITY\VC\TOOLS\MSVC\14.25.28610\INCLUDE\LIMITS.H
C:\PROGRAM FILES (X86)\MICROSOFT VISUAL STUDIO\2019\COMMUNITY\VC\TOOLS\MSVC\14.25.28610\INCLUDE\CMATH
C:\PROGRAM FILES (X86)\MICROSOFT VISUAL STUDIO\2019\COMMUNITY\VC\TOOLS\MSVC\14.25.28610\INCLUDE\YVALS.H
C:\PROGRAM FILES (X86)\WINDOWS KITS\10\INCLUDE\10.0.18362.0\UCRT\CRTDBG.H
C:\PROGRAM FILES (X86)\MICROSOFT VISUAL STUDIO\2019\COMMUNITY\VC\TOOLS\MSVC\14.25.28610\INCLUDE\VCRUNTIME_NEW_DEBUG.H
C:\PROGRAM FILES (X86)\MICROSOFT VISUAL STUDIO\2019\COMMUNITY\VC\TOOLS\MSVC\14.25.28610\INCLUDE\VCRUNTIME_NEW.H
C:\PROGRAM FILES (X86)\MICROSOFT VISUAL STUDIO\2019\COMMUNITY\VC\TOOLS\MSVC\14.25.28610\INCLUDE\CRTDEFS.H
C:\PROGRAM FILES (X86)\MICROSOFT VISUAL STUDIO\2019\COMMUNITY\VC\TOOLS\MSVC\14.25.28610\INCLUDE\USE_ANSI.H
C:\PROGRAM FILES (X86)\MICROSOFT VISUAL STUDIO\2019\COMMUNITY\VC\TOOLS\MSVC\14.25.28610\INCLUDE\CSTDLIB
C:\PROGRAM FILES (X86)\WINDOWS KITS\10\INCLUDE\10.0.18362.0\UCRT\STDLIB.H
C:\PROGRAM FILES (X86)\WINDOWS KITS\10\INCLUDE\10.0.18362.0\UCRT\CORECRT_SEARCH.H
C:\PROGRAM FILES (X86)\WINDOWS KITS\10\INCLUDE\10.0.18362.0\UCRT\CORECRT_WSTDLIB.H
C:\PROGRAM FILES (X86)\MICROSOFT VISUAL STUDIO\2019\COMMUNITY\VC\TOOLS\MSVC\14.25.28610\INCLUDE\XTR1COMMON
C:\PROGRAM FILES (X86)\MICROSOFT VISUAL STUDIO\2019\COMMUNITY\VC\TOOLS\MSVC\14.25.28610\INCLUDE\CSTDIO
C:\PROGRAM FILES (X86)\WINDOWS KITS\10\INCLUDE\10.0.18362.0\UCRT\STDIO.H
C:\PROGRAM FILES (X86)\WINDOWS KITS\10\INCLUDE\10.0.18362.0\UCRT\CORECRT_WSTDIO.H
C:\PROGRAM FILES (X86)\WINDOWS KITS\10\INCLUDE\10.0.18362.0\UCRT\CORECRT_STDIO_CONFIG.H
C:\PROGRAM FILES (X86)\MICROSOFT VISUAL STUDIO\2019\COMMUNITY\VC\TOOLS\MSVC\14.25.28610\INCLUDE\STREAMBUF
C:\PROGRAM FILES (X86)\MICROSOFT VISUAL STUDIO\2019\COMMUNITY\VC\TOOLS\MSVC\14.25.28610\INCLUDE\XIOSBASE
C:\PROGRAM FILES (X86)\WINDOWS KITS\10\INCLUDE\10.0.18362.0\UCRT\SHARE.H
C:\PROGRAM FILES (X86)\WINDOWS KITS\10\INCLUDE\10.0.18362.0\UCRT\CORECRT_SHARE.H
C:\PROGRAM FILES (X86)\MICROSOFT VISUAL STUDIO\2019\COMMUNITY\VC\TOOLS\MSVC\14.25.28610\INCLUDE\SYSTEM_ERROR
C:\PROGRAM FILES (X86)\MICROSOFT VISUAL STUDIO\2019\COMMUNITY\VC\TOOLS\MSVC\14.25.28610\INCLUDE\CERRNO
C:\PROGRAM FILES (X86)\WINDOWS KITS\10\INCLUDE\10.0.18362.0\UCRT\ERRNO.H
C:\PROGRAM FILES (X86)\MICROSOFT VISUAL STUDIO\2019\COMMUNITY\VC\TOOLS\MSVC\14.25.28610\INCLUDE\STDEXCEPT
C:\PROGRAM FILES (X86)\MICROSOFT VISUAL STUDIO\2019\COMMUNITY\VC\TOOLS\MSVC\14.25.28610\INCLUDE\EXCEPTION
C:\PROGRAM FILES (X86)\MICROSOFT VISUAL STUDIO\2019\COMMUNITY\VC\TOOLS\MSVC\14.25.28610\INCLUDE\TYPE_TRAITS
C:\PROGRAM FILES (X86)\MICROSOFT VISUAL STUDIO\2019\COMMUNITY\VC\TOOLS\MSVC\14.25.28610\INCLUDE\XSTDDEF
C:\PROGRAM FILES (X86)\MICROSOFT VISUAL STUDIO\2019\COMMUNITY\VC\TOOLS\MSVC\14.25.28610\INCLUDE\CSTDDEF
C:\PROGRAM FILES (X86)\MICROSOFT VISUAL STUDIO\2019\COMMUNITY\VC\TOOLS\MSVC\14.25.28610\INCLUDE\INITIALIZER_LIST
C:\PROGRAM FILES (X86)\MICROSOFT VISUAL STUDIO\2019\COMMUNITY\VC\TOOLS\MSVC\14.25.28610\INCLUDE\VCRUNTIME_EXCEPTION.H
C:\PROGRAM FILES (X86)\MICROSOFT VISUAL STUDIO\2019\COMMUNITY\VC\TOOLS\MSVC\14.25.28610\INCLUDE\EH.H
C:\PROGRAM FILES (X86)\WINDOWS KITS\10\INCLUDE\10.0.18362.0\UCRT\CORECRT_TERMINATE.H
C:\PROGRAM FILES (X86)\MICROSOFT VISUAL STUDIO\2019\COMMUNITY\VC\TOOLS\MSVC\14.25.28610\INCLUDE\XSTRING
C:\PROGRAM FILES (X86)\MICROSOFT VISUAL STUDIO\2019\COMMUNITY\VC\TOOLS\MSVC\14.25.28610\INCLUDE\IOSFWD
C:\PROGRAM FILES (X86)\MICROSOFT VISUAL STUDIO\2019\COMMUNITY\VC\TOOLS\MSVC\14.25.28610\INCLUDE\CSTRING
C:\PROGRAM FILES (X86)\WINDOWS KITS\10\INCLUDE\10.0.18362.0\UCRT\STRING.H
C:\PROGRAM FILES (X86)\WINDOWS KITS\10\INCLUDE\10.0.18362.0\UCRT\CORECRT_MEMORY.H
C:\PROGRAM FILES (X86)\WINDOWS KITS\10\INCLUDE\10.0.18362.0\UCRT\CORECRT_MEMCPY_S.H
C:\PROGRAM FILES (X86)\MICROSOFT VISUAL STUDIO\2019\COMMUNITY\VC\TOOLS\MSVC\14.25.28610\INCLUDE\VCRUNTIME_STRING.H
C:\PROGRAM FILES (X86)\WINDOWS KITS\10\INCLUDE\10.0.18362.0\UCRT\CORECRT_WSTRING.H
C:\PROGRAM FILES (X86)\MICROSOFT VISUAL STUDIO\2019\COMMUNITY\VC\TOOLS\MSVC\14.25.28610\INCLUDE\CWCHAR
C:\PROGRAM FILES (X86)\WINDOWS KITS\10\INCLUDE\10.0.18362.0\UCRT\WCHAR.H
C:\PROGRAM FILES (X86)\WINDOWS KITS\10\INCLUDE\10.0.18362.0\UCRT\CORECRT_WCONIO.H
C:\PROGRAM FILES (X86)\WINDOWS KITS\10\INCLUDE\10.0.18362.0\UCRT\CORECRT_WCTYPE.H
C:\PROGRAM FILES (X86)\WINDOWS KITS\10\INCLUDE\10.0.18362.0\UCRT\CORECRT_WDIRECT.H
C:\PROGRAM FILES (X86)\WINDOWS KITS\10\INCLUDE\10.0.18362.0\UCRT\CORECRT_WIO.H
C:\PROGRAM FILES (X86)\WINDOWS KITS\10\INCLUDE\10.0.18362.0\UCRT\CORECRT_WTIME.H
C:\PROGRAM FILES (X86)\WINDOWS KITS\10\INCLUDE\10.0.18362.0\UCRT\SYS\STAT.H
C:\PROGRAM FILES (X86)\WINDOWS KITS\10\INCLUDE\10.0.18362.0\UCRT\SYS\TYPES.H
C:\PROGRAM FILES (X86)\MICROSOFT VISUAL STUDIO\2019\COMMUNITY\VC\TOOLS\MSVC\14.25.28610\INCLUDE\XMEMORY
C:\PROGRAM FILES (X86)\MICROSOFT VISUAL STUDIO\2019\COMMUNITY\VC\TOOLS\MSVC\14.25.28610\INCLUDE\CSTDINT
C:\PROGRAM FILES (X86)\MICROSOFT VISUAL STUDIO\2019\COMMUNITY\VC\TOOLS\MSVC\14.25.28610\INCLUDE\STDINT.H
C:\PROGRAM FILES (X86)\MICROSOFT VISUAL STUDIO\2019\COMMUNITY\VC\TOOLS\MSVC\14.25.28610\INCLUDE\LIMITS
C:\PROGRAM FILES (X86)\MICROSOFT VISUAL STUDIO\2019\COMMUNITY\VC\TOOLS\MSVC\14.25.28610\INCLUDE\CFLOAT
C:\PROGRAM FILES (X86)\WINDOWS KITS\10\INCLUDE\10.0.18362.0\UCRT\FLOAT.H
C:\PROGRAM FILES (X86)\MICROSOFT VISUAL STUDIO\2019\COMMUNITY\VC\TOOLS\MSVC\14.25.28610\INCLUDE\NEW
C:\PROGRAM FILES (X86)\MICROSOFT VISUAL STUDIO\2019\COMMUNITY\VC\TOOLS\MSVC\14.25.28610\INCLUDE\XATOMIC.H
C:\PROGRAM FILES (X86)\MICROSOFT VISUAL STUDIO\2019\COMMUNITY\VC\TOOLS\MSVC\14.25.28610\INCLUDE\XUTILITY
C:\PROGRAM FILES (X86)\MICROSOFT VISUAL STUDIO\2019\COMMUNITY\VC\TOOLS\MSVC\14.25.28610\INCLUDE\UTILITY
C:\PROGRAM FILES (X86)\MICROSOFT VISUAL STUDIO\2019\COMMUNITY\VC\TOOLS\MSVC\14.25.28610\INCLUDE\XCALL_ONCE.H
C:\PROGRAM FILES (X86)\MICROSOFT VISUAL STUDIO\2019\COMMUNITY\VC\TOOLS\MSVC\14.25.28610\INCLUDE\XERRC.H
C:\PROGRAM FILES (X86)\MICROSOFT VISUAL STUDIO\2019\COMMUNITY\VC\TOOLS\MSVC\14.25.28610\INCLUDE\XLOCALE
C:\PROGRAM FILES (X86)\MICROSOFT VISUAL STUDIO\2019\COMMUNITY\VC\TOOLS\MSVC\14.25.28610\INCLUDE\MEMORY
C:\PROGRAM FILES (X86)\MICROSOFT VISUAL STUDIO\2019\COMMUNITY\VC\TOOLS\MSVC\14.25.28610\INCLUDE\TYPEINFO
C:\PROGRAM FILES (X86)\MICROSOFT VISUAL STUDIO\2019\COMMUNITY\VC\TOOLS\MSVC\14.25.28610\INCLUDE\VCRUNTIME_TYPEINFO.H
C:\PROGRAM FILES (X86)\MICROSOFT VISUAL STUDIO\2019\COMMUNITY\VC\TOOLS\MSVC\14.25.28610\INCLUDE\XFACET
C:\PROGRAM FILES (X86)\MICROSOFT VISUAL STUDIO\2019\COMMUNITY\VC\TOOLS\MSVC\14.25.28610\INCLUDE\XLOCINFO
C:\PROGRAM FILES (X86)\MICROSOFT VISUAL STUDIO\2019\COMMUNITY\VC\TOOLS\MSVC\14.25.28610\INCLUDE\XLOCINFO.H
C:\PROGRAM FILES (X86)\WINDOWS KITS\10\INCLUDE\10.0.18362.0\UCRT\CTYPE.H
C:\PROGRAM FILES (X86)\WINDOWS KITS\10\INCLUDE\10.0.18362.0\UCRT\LOCALE.H
C:\PROGRAM FILES (X86)\MICROSOFT VISUAL STUDIO\2019\COMMUNITY\VC\TOOLS\MSVC\14.25.28610\INCLUDE\SSTREAM
C:\PROGRAM FILES (X86)\MICROSOFT VISUAL STUDIO\2019\COMMUNITY\VC\TOOLS\MSVC\14.25.28610\INCLUDE\STRING
C:\PROGRAM FILES (X86)\MICROSOFT VISUAL STUDIO\2019\COMMUNITY\VC\TOOLS\MSVC\14.25.28610\INCLUDE\CCTYPE
C:\USERS\ABRIS\ONEDRIVE\DESKTOP\REPOS\COMPUTER-GRAQPHICS-BEADANDO\01_TEXTURES\01_TEXTURES\MYAPP.H
T:\OGLPACK\INCLUDE\GLM\GLM.HPP
T:\OGLPACK\INCLUDE\GLM\DETAIL\_FIXES.HPP
C:\PROGRAM FILES (X86)\MICROSOFT VISUAL STUDIO\2019\COMMUNITY\VC\TOOLS\MSVC\14.25.28610\INCLUDE\CASSERT
C:\PROGRAM FILES (X86)\WINDOWS KITS\10\INCLUDE\10.0.18362.0\UCRT\ASSERT.H
T:\OGLPACK\INCLUDE\GLM\FWD.HPP
T:\OGLPACK\INCLUDE\GLM\DETAIL\TYPE_INT.HPP
T:\OGLPACK\INCLUDE\GLM\DETAIL\SETUP.HPP
T:\OGLPACK\INCLUDE\GLM\SIMD\PLATFORM.H
T:\OGLPACK\INCLUDE\GLM\DETAIL\TYPE_FLOAT.HPP
T:\OGLPACK\INCLUDE\GLM\DETAIL\TYPE_VEC.HPP
T:\OGLPACK\INCLUDE\GLM\DETAIL\PRECISION.HPP
T:\OGLPACK\INCLUDE\GLM\DETAIL\TYPE_MAT.HPP
T:\OGLPACK\INCLUDE\GLM\VEC2.HPP
T:\OGLPACK\INCLUDE\GLM\DETAIL\TYPE_VEC2.HPP
T:\OGLPACK\INCLUDE\GLM\DETAIL\TYPE_VEC2.INL
T:\OGLPACK\INCLUDE\GLM\VEC3.HPP
T:\OGLPACK\INCLUDE\GLM\DETAIL\TYPE_VEC3.HPP
T:\OGLPACK\INCLUDE\GLM\DETAIL\TYPE_VEC3.INL
T:\OGLPACK\INCLUDE\GLM\VEC4.HPP
T:\OGLPACK\INCLUDE\GLM\DETAIL\TYPE_VEC4.HPP
T:\OGLPACK\INCLUDE\GLM\DETAIL\TYPE_VEC4.INL
T:\OGLPACK\INCLUDE\GLM\DETAIL\TYPE_VEC4_SIMD.INL
T:\OGLPACK\INCLUDE\GLM\MAT2X2.HPP
T:\OGLPACK\INCLUDE\GLM\DETAIL\TYPE_MAT2X2.HPP
T:\OGLPACK\INCLUDE\GLM\DETAIL\TYPE_MAT2X2.INL
T:\OGLPACK\INCLUDE\GLM\DETAIL\FUNC_MATRIX.HPP
T:\OGLPACK\INCLUDE\GLM\MAT2X3.HPP
T:\OGLPACK\INCLUDE\GLM\DETAIL\TYPE_MAT2X3.HPP
T:\OGLPACK\INCLUDE\GLM\DETAIL\TYPE_MAT2X3.INL
T:\OGLPACK\INCLUDE\GLM\MAT2X4.HPP
T:\OGLPACK\INCLUDE\GLM\DETAIL\TYPE_MAT2X4.HPP
T:\OGLPACK\INCLUDE\GLM\DETAIL\TYPE_MAT2X4.INL
T:\OGLPACK\INCLUDE\GLM\MAT3X2.HPP
T:\OGLPACK\INCLUDE\GLM\DETAIL\TYPE_MAT3X2.HPP
T:\OGLPACK\INCLUDE\GLM\DETAIL\TYPE_MAT3X2.INL
T:\OGLPACK\INCLUDE\GLM\MAT3X3.HPP
T:\OGLPACK\INCLUDE\GLM\DETAIL\TYPE_MAT3X3.HPP
T:\OGLPACK\INCLUDE\GLM\DETAIL\TYPE_MAT3X3.INL
T:\OGLPACK\INCLUDE\GLM\MAT3X4.HPP
T:\OGLPACK\INCLUDE\GLM\DETAIL\TYPE_MAT3X4.HPP
T:\OGLPACK\INCLUDE\GLM\DETAIL\TYPE_MAT3X4.INL
T:\OGLPACK\INCLUDE\GLM\MAT4X2.HPP
T:\OGLPACK\INCLUDE\GLM\DETAIL\TYPE_MAT4X2.HPP
T:\OGLPACK\INCLUDE\GLM\DETAIL\TYPE_MAT4X2.INL
T:\OGLPACK\INCLUDE\GLM\MAT4X3.HPP
T:\OGLPACK\INCLUDE\GLM\DETAIL\TYPE_MAT4X3.HPP
T:\OGLPACK\INCLUDE\GLM\DETAIL\TYPE_MAT4X3.INL
T:\OGLPACK\INCLUDE\GLM\MAT4X4.HPP
T:\OGLPACK\INCLUDE\GLM\DETAIL\TYPE_MAT4X4.HPP
T:\OGLPACK\INCLUDE\GLM\DETAIL\TYPE_MAT4X4.INL
T:\OGLPACK\INCLUDE\GLM\DETAIL\TYPE_MAT4X4_SIMD.INL
T:\OGLPACK\INCLUDE\GLM\DETAIL\FUNC_MATRIX.INL
T:\OGLPACK\INCLUDE\GLM\GEOMETRIC.HPP
T:\OGLPACK\INCLUDE\GLM\DETAIL\FUNC_GEOMETRIC.HPP
T:\OGLPACK\INCLUDE\GLM\DETAIL\FUNC_GEOMETRIC.INL
T:\OGLPACK\INCLUDE\GLM\DETAIL\FUNC_EXPONENTIAL.HPP
T:\OGLPACK\INCLUDE\GLM\DETAIL\TYPE_VEC1.HPP
T:\OGLPACK\INCLUDE\GLM\DETAIL\TYPE_VEC1.INL
T:\OGLPACK\INCLUDE\GLM\DETAIL\FUNC_EXPONENTIAL.INL
T:\OGLPACK\INCLUDE\GLM\DETAIL\FUNC_VECTOR_RELATIONAL.HPP
T:\OGLPACK\INCLUDE\GLM\DETAIL\FUNC_VECTOR_RELATIONAL.INL
T:\OGLPACK\INCLUDE\GLM\DETAIL\FUNC_VECTOR_RELATIONAL_SIMD.INL
T:\OGLPACK\INCLUDE\GLM\DETAIL\_VECTORIZE.HPP
T:\OGLPACK\INCLUDE\GLM\DETAIL\FUNC_EXPONENTIAL_SIMD.INL
T:\OGLPACK\INCLUDE\GLM\SIMD\EXPONENTIAL.H
T:\OGLPACK\INCLUDE\GLM\DETAIL\FUNC_COMMON.HPP
T:\OGLPACK\INCLUDE\GLM\DETAIL\FUNC_COMMON.INL
T:\OGLPACK\INCLUDE\GLM\DETAIL\FUNC_COMMON_SIMD.INL
T:\OGLPACK\INCLUDE\GLM\SIMD\COMMON.H
T:\OGLPACK\INCLUDE\GLM\DETAIL\FUNC_GEOMETRIC_SIMD.INL
T:\OGLPACK\INCLUDE\GLM\SIMD\GEOMETRIC.H
T:\OGLPACK\INCLUDE\GLM\DETAIL\FUNC_MATRIX_SIMD.INL
T:\OGLPACK\INCLUDE\GLM\SIMD\MATRIX.H
T:\OGLPACK\INCLUDE\GLM\TRIGONOMETRIC.HPP
T:\OGLPACK\INCLUDE\GLM\DETAIL\FUNC_TRIGONOMETRIC.HPP
T:\OGLPACK\INCLUDE\GLM\DETAIL\FUNC_TRIGONOMETRIC.INL
T:\OGLPACK\INCLUDE\GLM\DETAIL\FUNC_TRIGONOMETRIC_SIMD.INL
T:\OGLPACK\INCLUDE\GLM\EXPONENTIAL.HPP
T:\OGLPACK\INCLUDE\GLM\COMMON.HPP
T:\OGLPACK\INCLUDE\GLM\PACKING.HPP
T:\OGLPACK\INCLUDE\GLM\DETAIL\FUNC_PACKING.HPP
T:\OGLPACK\INCLUDE\GLM\DETAIL\FUNC_PACKING.INL
T:\OGLPACK\INCLUDE\GLM\DETAIL\TYPE_HALF.HPP
T:\OGLPACK\INCLUDE\GLM\DETAIL\TYPE_HALF.INL
T:\OGLPACK\INCLUDE\GLM\DETAIL\FUNC_PACKING_SIMD.INL
T:\OGLPACK\INCLUDE\GLM\MATRIX.HPP
T:\OGLPACK\INCLUDE\GLM\VECTOR_RELATIONAL.HPP
T:\OGLPACK\INCLUDE\GLM\INTEGER.HPP
T:\OGLPACK\INCLUDE\GLM\DETAIL\FUNC_INTEGER.HPP
T:\OGLPACK\INCLUDE\GLM\DETAIL\FUNC_INTEGER.INL
T:\OGLPACK\INCLUDE\GLM\DETAIL\FUNC_INTEGER_SIMD.INL
T:\OGLPACK\INCLUDE\GLM\SIMD\INTEGER.H
T:\OGLPACK\INCLUDE\GLM\GTC\MATRIX_TRANSFORM.HPP
T:\OGLPACK\INCLUDE\GLM\GTC\CONSTANTS.HPP
T:\OGLPACK\INCLUDE\GLM\GTC\CONSTANTS.INL
T:\OGLPACK\INCLUDE\GLM\GTC\MATRIX_TRANSFORM.INL
T:\OGLPACK\INCLUDE\GLM\GTX\TRANSFORM2.HPP
T:\OGLPACK\INCLUDE\GLM\GTX\TRANSFORM.HPP
T:\OGLPACK\INCLUDE\GLM\GTX\TRANSFORM.INL
T:\OGLPACK\INCLUDE\GLM\GTX\TRANSFORM2.INL
