^C:\USERS\BOI8NJ\COMPUTER-GRAQPHICS-BEADANDO\01_SHADERS\01_SHADERS\01_SHADERS\MAIN.CPP
/c /ZI /JMC /nologo /W3 /WX- /diagnostics:column /Od /D _DEBUG /D _CONSOLE /D _UNICODE /D UNICODE /Gm- /EHsc /RTC1 /MDd /GS /fp:precise /Zc:wchar_t /Zc:forScope /Zc:inline /Fo"X64\DEBUG\\" /Fd"X64\DEBUG\VC142.PDB" /Gd /TP /FC C:\USERS\BOI8NJ\COMPUTER-GRAQPHICS-BEADANDO\01_SHADERS\01_SHADERS\01_SHADERS\MAIN.CPP
^C:\USERS\BOI8NJ\COMPUTER-GRAQPHICS-BEADANDO\01_SHADERS\01_SHADERS\01_SHADERS\MYAPP.CPP
/c /ZI /JMC /nologo /W3 /WX- /diagnostics:column /Od /D _DEBUG /D _CONSOLE /D _UNICODE /D UNICODE /Gm- /EHsc /RTC1 /MDd /GS /fp:precise /Zc:wchar_t /Zc:forScope /Zc:inline /Fo"X64\DEBUG\\" /Fd"X64\DEBUG\VC142.PDB" /Gd /TP /FC C:\USERS\BOI8NJ\COMPUTER-GRAQPHICS-BEADANDO\01_SHADERS\01_SHADERS\01_SHADERS\MYAPP.CPP
