^C:\USERS\ABRIS\DESKTOP\REPOS\COMPUTER-GRAQPHICS-BEADANDO\BEADANDO_01\BEADANDO_01\DEBUG\MAIN.OBJ|C:\USERS\ABRIS\DESKTOP\REPOS\COMPUTER-GRAQPHICS-BEADANDO\BEADANDO_01\BEADANDO_01\DEBUG\MYAPP.OBJ
C:\USERS\ABRIS\DESKTOP\REPOS\COMPUTER-GRAQPHICS-BEADANDO\BEADANDO_01\DEBUG\BEADANDO_01.EXE
C:\USERS\ABRIS\DESKTOP\REPOS\COMPUTER-GRAQPHICS-BEADANDO\BEADANDO_01\DEBUG\BEADANDO_01.ILK
C:\USERS\ABRIS\DESKTOP\REPOS\COMPUTER-GRAQPHICS-BEADANDO\BEADANDO_01\DEBUG\BEADANDO_01.PDB
