^C:\USERS\ABRIS\ONEDRIVE\DESKTOP\REPOS\COMPUTER-GRAQPHICS-BEADANDO\001.BEAD\02_INDICES\MAIN.CPP
/c /ZI /JMC /nologo /W3 /WX- /diagnostics:column /Od /Oy- /D WIN32 /D _DEBUG /D _CONSOLE /D _UNICODE /D UNICODE /Gm- /EHsc /RTC1 /MDd /GS /fp:precise /Zc:wchar_t /Zc:forScope /Zc:inline /Fo"DEBUG\\" /Fd"DEBUG\VC142.PDB" /Gd /TP /analyze- /FC C:\USERS\ABRIS\ONEDRIVE\DESKTOP\REPOS\COMPUTER-GRAQPHICS-BEADANDO\001.BEAD\02_INDICES\MAIN.CPP
^C:\USERS\ABRIS\ONEDRIVE\DESKTOP\REPOS\COMPUTER-GRAQPHICS-BEADANDO\001.BEAD\02_INDICES\MYAPP.CPP
/c /ZI /JMC /nologo /W3 /WX- /diagnostics:column /Od /Oy- /D WIN32 /D _DEBUG /D _CONSOLE /D _UNICODE /D UNICODE /Gm- /EHsc /RTC1 /MDd /GS /fp:precise /Zc:wchar_t /Zc:forScope /Zc:inline /Fo"DEBUG\\" /Fd"DEBUG\VC142.PDB" /Gd /TP /analyze- /FC C:\USERS\ABRIS\ONEDRIVE\DESKTOP\REPOS\COMPUTER-GRAQPHICS-BEADANDO\001.BEAD\02_INDICES\MYAPP.CPP
