^C:\USERS\ABRIS\ONEDRIVE\DESKTOP\REPOS\COMPUTER-GRAQPHICS-BEADANDO\001.BEAD\02_INDICES\DEBUG\MAIN.OBJ|C:\USERS\ABRIS\ONEDRIVE\DESKTOP\REPOS\COMPUTER-GRAQPHICS-BEADANDO\001.BEAD\02_INDICES\DEBUG\MYAPP.OBJ
/OUT:"C:\USERS\ABRIS\ONEDRIVE\DESKTOP\REPOS\COMPUTER-GRAQPHICS-BEADANDO\001.BEAD\DEBUG\BEADANDO.EXE" /INCREMENTAL /NOLOGO SDL2.LIB SDL2MAIN.LIB GLEW32.LIB OPENGL32.LIB KERNEL32.LIB USER32.LIB GDI32.LIB WINSPOOL.LIB COMDLG32.LIB ADVAPI32.LIB SHELL32.LIB OLE32.LIB OLEAUT32.LIB UUID.LIB ODBC32.LIB ODBCCP32.LIB /MANIFEST /MANIFESTUAC:"level='asInvoker' uiAccess='false'" /manifest:embed /DEBUG:FASTLINK /PDB:"C:\USERS\ABRIS\ONEDRIVE\DESKTOP\REPOS\COMPUTER-GRAQPHICS-BEADANDO\001.BEAD\DEBUG\BEADANDO.PDB" /SUBSYSTEM:CONSOLE /TLBID:1 /DYNAMICBASE /NXCOMPAT /IMPLIB:"C:\USERS\ABRIS\ONEDRIVE\DESKTOP\REPOS\COMPUTER-GRAQPHICS-BEADANDO\001.BEAD\DEBUG\BEADANDO.LIB" /MACHINE:X86 DEBUG\MAIN.OBJ
DEBUG\MYAPP.OBJ
